info face="Gotham Pro Light" size="0" bold=0 italic=0 charset= unicode=0 stretchH=100 smooth=1 aa=1 padding=0,0,0,0 spacing=2,2
common lineHeight=80 base=65 scaleW=512 scaleH=512 pages=1 packed=0
page id=0 file="PTModelFont_ID2.png"
chars count=94
char id=47 x=0 y=0 width=33 height=56 xoffset=-1 yoffset=13 xadvance=30 page=0 chnl=0  letter="/"
char id=124 x=37 y=0 width=3 height=56 xoffset=8 yoffset=13 xadvance=17 page=0 chnl=0  letter="|"
char id=64 x=44 y=0 width=53 height=53 xoffset=3 yoffset=18 xadvance=59 page=0 chnl=0  letter="@"
char id=106 x=101 y=0 width=11 height=53 xoffset=0 yoffset=18 xadvance=15 page=0 chnl=0  letter="j"
char id=36 x=116 y=0 width=31 height=52 xoffset=3 yoffset=15 xadvance=38 page=0 chnl=0  letter="$"
char id=40 x=151 y=0 width=19 height=52 xoffset=4 yoffset=18 xadvance=26 page=0 chnl=0  letter="("
char id=41 x=174 y=0 width=19 height=52 xoffset=3 yoffset=18 xadvance=26 page=0 chnl=0  letter=")"
char id=123 x=197 y=0 width=23 height=52 xoffset=3 yoffset=18 xadvance=29 page=0 chnl=0  letter="{"
char id=125 x=224 y=0 width=23 height=52 xoffset=4 yoffset=18 xadvance=29 page=0 chnl=0  letter="}"
char id=91 x=251 y=0 width=18 height=50 xoffset=6 yoffset=19 xadvance=26 page=0 chnl=0  letter="["
char id=93 x=273 y=0 width=17 height=50 xoffset=4 yoffset=19 xadvance=26 page=0 chnl=0  letter="]"
char id=81 x=294 y=0 width=44 height=45 xoffset=4 yoffset=18 xadvance=51 page=0 chnl=0  letter="Q"
char id=98 x=342 y=0 width=31 height=45 xoffset=6 yoffset=17 xadvance=40 page=0 chnl=0  letter="b"
char id=100 x=377 y=0 width=32 height=45 xoffset=4 yoffset=17 xadvance=40 page=0 chnl=0  letter="d"
char id=37 x=413 y=0 width=44 height=44 xoffset=3 yoffset=18 xadvance=49 page=0 chnl=0  letter="%"
char id=38 x=461 y=0 width=38 height=44 xoffset=3 yoffset=18 xadvance=42 page=0 chnl=0  letter="&"
char id=48 x=0 y=60 width=36 height=44 xoffset=4 yoffset=18 xadvance=43 page=0 chnl=0  letter="0"
char id=54 x=40 y=60 width=32 height=44 xoffset=4 yoffset=18 xadvance=39 page=0 chnl=0  letter="6"
char id=56 x=76 y=60 width=32 height=44 xoffset=3 yoffset=18 xadvance=38 page=0 chnl=0  letter="8"
char id=57 x=112 y=60 width=32 height=44 xoffset=4 yoffset=18 xadvance=39 page=0 chnl=0  letter="9"
char id=67 x=148 y=60 width=38 height=44 xoffset=4 yoffset=18 xadvance=44 page=0 chnl=0  letter="C"
char id=71 x=190 y=60 width=38 height=44 xoffset=4 yoffset=18 xadvance=47 page=0 chnl=0  letter="G"
char id=79 x=232 y=60 width=43 height=44 xoffset=4 yoffset=18 xadvance=51 page=0 chnl=0  letter="O"
char id=83 x=279 y=60 width=32 height=44 xoffset=3 yoffset=18 xadvance=38 page=0 chnl=0  letter="S"
char id=87 x=315 y=60 width=61 height=44 xoffset=3 yoffset=18 xadvance=66 page=0 chnl=0  letter="W"
char id=102 x=380 y=60 width=20 height=44 xoffset=3 yoffset=17 xadvance=22 page=0 chnl=0  letter="f"
char id=104 x=404 y=60 width=27 height=44 xoffset=6 yoffset=17 xadvance=37 page=0 chnl=0  letter="h"
char id=107 x=435 y=60 width=27 height=44 xoffset=6 yoffset=17 xadvance=34 page=0 chnl=0  letter="k"
char id=108 x=503 y=0 width=3 height=44 xoffset=6 yoffset=17 xadvance=15 page=0 chnl=0  letter="l"
char id=49 x=466 y=60 width=13 height=43 xoffset=2 yoffset=18 xadvance=20 page=0 chnl=0  letter="1"
char id=50 x=0 y=108 width=30 height=43 xoffset=3 yoffset=18 xadvance=35 page=0 chnl=0  letter="2"
char id=51 x=34 y=108 width=30 height=43 xoffset=3 yoffset=19 xadvance=37 page=0 chnl=0  letter="3"
char id=52 x=68 y=108 width=35 height=43 xoffset=3 yoffset=18 xadvance=40 page=0 chnl=0  letter="4"
char id=53 x=107 y=108 width=30 height=43 xoffset=4 yoffset=19 xadvance=36 page=0 chnl=0  letter="5"
char id=63 x=141 y=108 width=27 height=43 xoffset=3 yoffset=18 xadvance=32 page=0 chnl=0  letter="?"
char id=65 x=172 y=108 width=43 height=43 xoffset=3 yoffset=18 xadvance=47 page=0 chnl=0  letter="A"
char id=74 x=219 y=108 width=26 height=43 xoffset=2 yoffset=19 xadvance=33 page=0 chnl=0  letter="J"
char id=85 x=249 y=108 width=36 height=43 xoffset=6 yoffset=19 xadvance=46 page=0 chnl=0  letter="U"
char id=86 x=289 y=108 width=41 height=43 xoffset=3 yoffset=19 xadvance=45 page=0 chnl=0  letter="V"
char id=105 x=483 y=60 width=5 height=43 xoffset=6 yoffset=18 xadvance=15 page=0 chnl=0  letter="i"
char id=33 x=492 y=60 width=5 height=42 xoffset=5 yoffset=19 xadvance=15 page=0 chnl=0  letter="!"
char id=35 x=334 y=108 width=37 height=42 xoffset=3 yoffset=19 xadvance=42 page=0 chnl=0  letter="#"
char id=55 x=375 y=108 width=28 height=42 xoffset=4 yoffset=19 xadvance=35 page=0 chnl=0  letter="7"
char id=66 x=407 y=108 width=34 height=42 xoffset=6 yoffset=19 xadvance=43 page=0 chnl=0  letter="B"
char id=68 x=445 y=108 width=37 height=42 xoffset=6 yoffset=19 xadvance=47 page=0 chnl=0  letter="D"
char id=69 x=0 y=155 width=31 height=42 xoffset=6 yoffset=19 xadvance=40 page=0 chnl=0  letter="E"
char id=70 x=35 y=155 width=30 height=42 xoffset=6 yoffset=19 xadvance=39 page=0 chnl=0  letter="F"
char id=72 x=69 y=155 width=34 height=42 xoffset=6 yoffset=19 xadvance=46 page=0 chnl=0  letter="H"
char id=73 x=501 y=60 width=4 height=42 xoffset=7 yoffset=19 xadvance=16 page=0 chnl=0  letter="I"
char id=75 x=107 y=155 width=36 height=42 xoffset=6 yoffset=19 xadvance=43 page=0 chnl=0  letter="K"
char id=76 x=147 y=155 width=29 height=42 xoffset=6 yoffset=19 xadvance=37 page=0 chnl=0  letter="L"
char id=77 x=180 y=155 width=40 height=42 xoffset=6 yoffset=19 xadvance=52 page=0 chnl=0  letter="M"
char id=78 x=224 y=155 width=36 height=42 xoffset=6 yoffset=19 xadvance=47 page=0 chnl=0  letter="N"
char id=80 x=264 y=155 width=32 height=42 xoffset=6 yoffset=19 xadvance=40 page=0 chnl=0  letter="P"
char id=82 x=300 y=155 width=35 height=42 xoffset=6 yoffset=19 xadvance=43 page=0 chnl=0  letter="R"
char id=84 x=339 y=155 width=33 height=42 xoffset=3 yoffset=19 xadvance=39 page=0 chnl=0  letter="T"
char id=88 x=376 y=155 width=38 height=42 xoffset=3 yoffset=19 xadvance=43 page=0 chnl=0  letter="X"
char id=89 x=418 y=155 width=40 height=42 xoffset=2 yoffset=19 xadvance=43 page=0 chnl=0  letter="Y"
char id=90 x=462 y=155 width=34 height=42 xoffset=4 yoffset=19 xadvance=41 page=0 chnl=0  letter="Z"
char id=103 x=0 y=201 width=32 height=42 xoffset=4 yoffset=29 xadvance=40 page=0 chnl=0  letter="g"
char id=112 x=36 y=201 width=31 height=42 xoffset=6 yoffset=29 xadvance=40 page=0 chnl=0  letter="p"
char id=113 x=71 y=201 width=32 height=42 xoffset=4 yoffset=29 xadvance=40 page=0 chnl=0  letter="q"
char id=116 x=486 y=108 width=19 height=42 xoffset=3 yoffset=20 xadvance=24 page=0 chnl=0  letter="t"
char id=121 x=107 y=201 width=31 height=41 xoffset=2 yoffset=30 xadvance=35 page=0 chnl=0  letter="y"
char id=59 x=500 y=155 width=7 height=38 xoffset=3 yoffset=30 xadvance=14 page=0 chnl=0  letter=";"
char id=97 x=142 y=201 width=27 height=33 xoffset=3 yoffset=29 xadvance=34 page=0 chnl=0  letter="a"
char id=99 x=173 y=201 width=29 height=33 xoffset=4 yoffset=29 xadvance=34 page=0 chnl=0  letter="c"
char id=101 x=206 y=201 width=30 height=33 xoffset=4 yoffset=29 xadvance=35 page=0 chnl=0  letter="e"
char id=111 x=240 y=201 width=32 height=33 xoffset=4 yoffset=29 xadvance=38 page=0 chnl=0  letter="o"
char id=115 x=276 y=201 width=25 height=33 xoffset=3 yoffset=29 xadvance=30 page=0 chnl=0  letter="s"
char id=60 x=305 y=201 width=29 height=32 xoffset=4 yoffset=24 xadvance=38 page=0 chnl=0  letter="<"
char id=62 x=338 y=201 width=29 height=32 xoffset=6 yoffset=24 xadvance=38 page=0 chnl=0  letter=">"
char id=109 x=371 y=201 width=47 height=32 xoffset=6 yoffset=29 xadvance=57 page=0 chnl=0  letter="m"
char id=110 x=422 y=201 width=27 height=32 xoffset=6 yoffset=29 xadvance=37 page=0 chnl=0  letter="n"
char id=114 x=453 y=201 width=18 height=32 xoffset=6 yoffset=29 xadvance=24 page=0 chnl=0  letter="r"
char id=117 x=475 y=201 width=28 height=32 xoffset=5 yoffset=30 xadvance=37 page=0 chnl=0  letter="u"
char id=118 x=0 y=247 width=31 height=32 xoffset=2 yoffset=30 xadvance=35 page=0 chnl=0  letter="v"
char id=119 x=35 y=247 width=47 height=32 xoffset=3 yoffset=30 xadvance=52 page=0 chnl=0  letter="w"
char id=58 x=86 y=247 width=5 height=31 xoffset=5 yoffset=30 xadvance=14 page=0 chnl=0  letter=":"
char id=120 x=95 y=247 width=30 height=31 xoffset=3 yoffset=30 xadvance=34 page=0 chnl=0  letter="x"
char id=122 x=129 y=247 width=27 height=31 xoffset=3 yoffset=30 xadvance=33 page=0 chnl=0  letter="z"
char id=43 x=160 y=247 width=30 height=30 xoffset=5 yoffset=25 xadvance=38 page=0 chnl=0  letter="+"
char id=42 x=194 y=247 width=18 height=19 xoffset=5 yoffset=18 xadvance=26 page=0 chnl=0  letter="*"
char id=61 x=216 y=247 width=28 height=18 xoffset=6 yoffset=31 xadvance=38 page=0 chnl=0  letter="="
char id=34 x=248 y=247 width=17 height=16 xoffset=4 yoffset=19 xadvance=25 page=0 chnl=0  letter="""
char id=39 x=269 y=247 width=7 height=16 xoffset=4 yoffset=19 xadvance=14 page=0 chnl=0  letter="'"
char id=94 x=280 y=247 width=22 height=14 xoffset=4 yoffset=18 xadvance=30 page=0 chnl=0  letter="^"
char id=44 x=306 y=247 width=6 height=13 xoffset=3 yoffset=55 xadvance=14 page=0 chnl=0  letter=","
char id=96 x=316 y=247 width=10 height=9 xoffset=9 yoffset=17 xadvance=30 page=0 chnl=0  letter="`"
char id=126 x=330 y=247 width=19 height=8 xoffset=5 yoffset=39 xadvance=28 page=0 chnl=0  letter="~"
char id=46 x=353 y=247 width=5 height=6 xoffset=5 yoffset=55 xadvance=14 page=0 chnl=0  letter="."
char id=45 x=142 y=238 width=17 height=4 xoffset=4 yoffset=41 xadvance=24 page=0 chnl=0  letter="-"
char id=95 x=163 y=238 width=38 height=4 xoffset=0 yoffset=67 xadvance=36 page=0 chnl=0  letter="_"
char id=32 x=294 y=49 width=0 height=0 xoffset=0 yoffset=106 xadvance=18 page=0 chnl=0  letter=" "
kernings count=860
kerning first=47 second=47 amount=-10
kerning first=47 second=81 amount=-2
kerning first=47 second=100 amount=-4
kerning first=47 second=48 amount=-2
kerning first=47 second=54 amount=-2
kerning first=47 second=56 amount=-1
kerning first=47 second=57 amount=-1
kerning first=47 second=67 amount=-2
kerning first=47 second=71 amount=-2
kerning first=47 second=79 amount=-2
kerning first=47 second=83 amount=-2
kerning first=47 second=102 amount=-1
kerning first=47 second=49 amount=1
kerning first=47 second=50 amount=-1
kerning first=47 second=51 amount=-1
kerning first=47 second=52 amount=-6
kerning first=47 second=53 amount=-1
kerning first=47 second=65 amount=-7
kerning first=47 second=74 amount=-8
kerning first=47 second=55 amount=-1
kerning first=47 second=90 amount=-1
kerning first=47 second=103 amount=-4
kerning first=47 second=112 amount=-3
kerning first=47 second=113 amount=-4
kerning first=47 second=116 amount=-1
kerning first=47 second=121 amount=-3
kerning first=47 second=97 amount=-4
kerning first=47 second=99 amount=-5
kerning first=47 second=101 amount=-5
kerning first=47 second=111 amount=-5
kerning first=47 second=115 amount=-5
kerning first=47 second=109 amount=-3
kerning first=47 second=110 amount=-3
kerning first=47 second=114 amount=-3
kerning first=47 second=117 amount=-3
kerning first=47 second=118 amount=-3
kerning first=47 second=119 amount=-3
kerning first=47 second=120 amount=-3
kerning first=47 second=122 amount=-4
kerning first=36 second=55 amount=-1
kerning first=40 second=106 amount=2
kerning first=40 second=81 amount=-2
kerning first=40 second=100 amount=-2
kerning first=40 second=67 amount=-2
kerning first=40 second=71 amount=-2
kerning first=40 second=79 amount=-2
kerning first=40 second=74 amount=-1
kerning first=40 second=103 amount=-1
kerning first=40 second=113 amount=-2
kerning first=40 second=99 amount=-2
kerning first=40 second=101 amount=-2
kerning first=40 second=111 amount=-2
kerning first=40 second=115 amount=-1
kerning first=123 second=106 amount=2
kerning first=123 second=81 amount=-1
kerning first=123 second=100 amount=-1
kerning first=123 second=67 amount=-1
kerning first=123 second=71 amount=-1
kerning first=123 second=79 amount=-1
kerning first=123 second=74 amount=-1
kerning first=123 second=103 amount=-1
kerning first=123 second=113 amount=-1
kerning first=123 second=121 amount=-1
kerning first=123 second=99 amount=-1
kerning first=123 second=101 amount=-1
kerning first=123 second=111 amount=-1
kerning first=123 second=115 amount=-1
kerning first=123 second=118 amount=-1
kerning first=123 second=119 amount=-1
kerning first=123 second=120 amount=-1
kerning first=123 second=122 amount=-1
kerning first=91 second=106 amount=2
kerning first=91 second=81 amount=-1
kerning first=91 second=100 amount=-1
kerning first=91 second=67 amount=-1
kerning first=91 second=71 amount=-1
kerning first=91 second=79 amount=-1
kerning first=91 second=74 amount=-1
kerning first=91 second=113 amount=-1
kerning first=91 second=121 amount=-1
kerning first=91 second=97 amount=-1
kerning first=91 second=99 amount=-1
kerning first=91 second=101 amount=-1
kerning first=91 second=111 amount=-1
kerning first=91 second=115 amount=-1
kerning first=91 second=118 amount=-1
kerning first=91 second=119 amount=-1
kerning first=91 second=120 amount=-1
kerning first=81 second=41 amount=-1
kerning first=81 second=87 amount=-2
kerning first=81 second=63 amount=-1
kerning first=81 second=86 amount=-2
kerning first=81 second=84 amount=-3
kerning first=81 second=89 amount=-4
kerning first=98 second=41 amount=-2
kerning first=98 second=125 amount=-1
kerning first=98 second=93 amount=-1
kerning first=98 second=63 amount=-2
kerning first=98 second=121 amount=-1
kerning first=98 second=118 amount=-1
kerning first=98 second=119 amount=-1
kerning first=98 second=120 amount=-2
kerning first=98 second=122 amount=-1
kerning first=98 second=42 amount=-1
kerning first=98 second=44 amount=-1
kerning first=98 second=46 amount=-1
kerning first=38 second=83 amount=-1
kerning first=38 second=87 amount=-3
kerning first=38 second=86 amount=-4
kerning first=38 second=84 amount=-5
kerning first=38 second=89 amount=-4
kerning first=48 second=47 amount=-2
kerning first=48 second=50 amount=-1
kerning first=48 second=51 amount=-1
kerning first=48 second=55 amount=-2
kerning first=48 second=44 amount=-1
kerning first=48 second=46 amount=-1
kerning first=54 second=47 amount=-1
kerning first=54 second=57 amount=-1
kerning first=54 second=49 amount=-1
kerning first=54 second=51 amount=-1
kerning first=54 second=55 amount=-1
kerning first=56 second=55 amount=-1
kerning first=57 second=47 amount=-1
kerning first=57 second=50 amount=-1
kerning first=57 second=51 amount=-1
kerning first=57 second=55 amount=-1
kerning first=57 second=44 amount=-1
kerning first=57 second=46 amount=-1
kerning first=67 second=81 amount=-1
kerning first=67 second=100 amount=-1
kerning first=67 second=67 amount=-1
kerning first=67 second=71 amount=-1
kerning first=67 second=79 amount=-1
kerning first=67 second=88 amount=-1
kerning first=67 second=89 amount=-1
kerning first=67 second=103 amount=-1
kerning first=67 second=113 amount=-1
kerning first=67 second=121 amount=-1
kerning first=67 second=99 amount=-1
kerning first=67 second=101 amount=-1
kerning first=67 second=111 amount=-1
kerning first=67 second=118 amount=-1
kerning first=67 second=119 amount=-1
kerning first=67 second=120 amount=-1
kerning first=67 second=45 amount=-1
kerning first=71 second=87 amount=-1
kerning first=71 second=63 amount=-1
kerning first=71 second=86 amount=-1
kerning first=71 second=84 amount=-1
kerning first=71 second=88 amount=-1
kerning first=71 second=89 amount=-2
kerning first=71 second=97 amount=1
kerning first=79 second=47 amount=-2
kerning first=79 second=41 amount=-2
kerning first=79 second=125 amount=-1
kerning first=79 second=93 amount=-1
kerning first=79 second=87 amount=-2
kerning first=79 second=63 amount=-1
kerning first=79 second=65 amount=-2
kerning first=79 second=74 amount=-2
kerning first=79 second=86 amount=-2
kerning first=79 second=84 amount=-3
kerning first=79 second=88 amount=-3
kerning first=79 second=89 amount=-4
kerning first=79 second=90 amount=-2
kerning first=79 second=44 amount=-2
kerning first=79 second=46 amount=-2
kerning first=83 second=83 amount=-1
kerning first=83 second=87 amount=-1
kerning first=83 second=63 amount=-1
kerning first=83 second=65 amount=-1
kerning first=83 second=86 amount=-2
kerning first=83 second=84 amount=-1
kerning first=83 second=88 amount=-1
kerning first=83 second=89 amount=-2
kerning first=83 second=90 amount=-1
kerning first=83 second=121 amount=-1
kerning first=83 second=118 amount=-1
kerning first=83 second=119 amount=-1
kerning first=83 second=120 amount=-1
kerning first=87 second=47 amount=-6
kerning first=87 second=106 amount=-1
kerning first=87 second=81 amount=-2
kerning first=87 second=100 amount=-4
kerning first=87 second=38 amount=-3
kerning first=87 second=67 amount=-2
kerning first=87 second=71 amount=-2
kerning first=87 second=79 amount=-2
kerning first=87 second=83 amount=-1
kerning first=87 second=87 amount=-1
kerning first=87 second=102 amount=-2
kerning first=87 second=108 amount=-1
kerning first=87 second=65 amount=-5
kerning first=87 second=74 amount=-6
kerning first=87 second=86 amount=-1
kerning first=87 second=105 amount=-1
kerning first=87 second=88 amount=-1
kerning first=87 second=89 amount=-1
kerning first=87 second=90 amount=-1
kerning first=87 second=103 amount=-4
kerning first=87 second=112 amount=-2
kerning first=87 second=113 amount=-4
kerning first=87 second=116 amount=-1
kerning first=87 second=121 amount=-2
kerning first=87 second=59 amount=-1
kerning first=87 second=97 amount=-4
kerning first=87 second=99 amount=-4
kerning first=87 second=101 amount=-4
kerning first=87 second=111 amount=-4
kerning first=87 second=115 amount=-4
kerning first=87 second=109 amount=-2
kerning first=87 second=110 amount=-2
kerning first=87 second=114 amount=-2
kerning first=87 second=117 amount=-2
kerning first=87 second=118 amount=-2
kerning first=87 second=119 amount=-2
kerning first=87 second=58 amount=-1
kerning first=87 second=120 amount=-2
kerning first=87 second=122 amount=-3
kerning first=87 second=44 amount=-6
kerning first=87 second=46 amount=-6
kerning first=87 second=45 amount=-2
kerning first=102 second=47 amount=-3
kerning first=102 second=41 amount=2
kerning first=102 second=125 amount=2
kerning first=102 second=93 amount=1
kerning first=102 second=100 amount=-1
kerning first=102 second=63 amount=2
kerning first=102 second=103 amount=-1
kerning first=102 second=113 amount=-1
kerning first=102 second=97 amount=-1
kerning first=102 second=99 amount=-1
kerning first=102 second=101 amount=-1
kerning first=102 second=111 amount=-1
kerning first=102 second=122 amount=-1
kerning first=102 second=42 amount=2
kerning first=102 second=44 amount=-3
kerning first=102 second=46 amount=-3
kerning first=104 second=63 amount=-2
kerning first=104 second=121 amount=-1
kerning first=104 second=118 amount=-1
kerning first=104 second=119 amount=-1
kerning first=104 second=42 amount=-1
kerning first=107 second=100 amount=-1
kerning first=107 second=103 amount=-1
kerning first=107 second=113 amount=-1
kerning first=107 second=116 amount=-1
kerning first=107 second=121 amount=-1
kerning first=107 second=97 amount=-1
kerning first=107 second=99 amount=-1
kerning first=107 second=101 amount=-1
kerning first=107 second=111 amount=-1
kerning first=107 second=117 amount=-1
kerning first=107 second=118 amount=-1
kerning first=107 second=119 amount=-1
kerning first=107 second=45 amount=-1
kerning first=50 second=52 amount=-2
kerning first=50 second=55 amount=-1
kerning first=51 second=47 amount=-1
kerning first=51 second=55 amount=-1
kerning first=52 second=47 amount=-1
kerning first=52 second=57 amount=-1
kerning first=52 second=49 amount=-1
kerning first=52 second=55 amount=-2
kerning first=53 second=47 amount=-1
kerning first=53 second=50 amount=-1
kerning first=53 second=55 amount=-2
kerning first=65 second=81 amount=-2
kerning first=65 second=100 amount=-1
kerning first=65 second=67 amount=-2
kerning first=65 second=71 amount=-2
kerning first=65 second=79 amount=-2
kerning first=65 second=83 amount=-1
kerning first=65 second=87 amount=-5
kerning first=65 second=102 amount=-1
kerning first=65 second=63 amount=-4
kerning first=65 second=85 amount=-1
kerning first=65 second=86 amount=-6
kerning first=65 second=84 amount=-5
kerning first=65 second=89 amount=-7
kerning first=65 second=103 amount=-1
kerning first=65 second=113 amount=-1
kerning first=65 second=116 amount=-2
kerning first=65 second=121 amount=-2
kerning first=65 second=99 amount=-1
kerning first=65 second=101 amount=-1
kerning first=65 second=111 amount=-1
kerning first=65 second=117 amount=-1
kerning first=65 second=118 amount=-4
kerning first=65 second=119 amount=-3
kerning first=65 second=42 amount=-6
kerning first=65 second=45 amount=-2
kerning first=74 second=65 amount=-1
kerning first=74 second=74 amount=-1
kerning first=74 second=44 amount=-1
kerning first=74 second=46 amount=-1
kerning first=85 second=47 amount=-1
kerning first=85 second=65 amount=-1
kerning first=85 second=74 amount=-1
kerning first=85 second=88 amount=-1
kerning first=85 second=44 amount=-1
kerning first=85 second=46 amount=-1
kerning first=86 second=47 amount=-7
kerning first=86 second=106 amount=-1
kerning first=86 second=81 amount=-2
kerning first=86 second=100 amount=-4
kerning first=86 second=38 amount=-3
kerning first=86 second=67 amount=-2
kerning first=86 second=71 amount=-2
kerning first=86 second=79 amount=-2
kerning first=86 second=83 amount=-1
kerning first=86 second=87 amount=-1
kerning first=86 second=102 amount=-1
kerning first=86 second=108 amount=-1
kerning first=86 second=65 amount=-6
kerning first=86 second=74 amount=-7
kerning first=86 second=86 amount=-1
kerning first=86 second=105 amount=-1
kerning first=86 second=88 amount=-1
kerning first=86 second=89 amount=-1
kerning first=86 second=90 amount=-1
kerning first=86 second=103 amount=-4
kerning first=86 second=112 amount=-2
kerning first=86 second=113 amount=-4
kerning first=86 second=116 amount=-1
kerning first=86 second=121 amount=-2
kerning first=86 second=59 amount=-1
kerning first=86 second=97 amount=-4
kerning first=86 second=99 amount=-4
kerning first=86 second=101 amount=-4
kerning first=86 second=111 amount=-4
kerning first=86 second=115 amount=-4
kerning first=86 second=109 amount=-2
kerning first=86 second=110 amount=-2
kerning first=86 second=114 amount=-2
kerning first=86 second=117 amount=-2
kerning first=86 second=118 amount=-2
kerning first=86 second=119 amount=-2
kerning first=86 second=58 amount=-1
kerning first=86 second=120 amount=-3
kerning first=86 second=122 amount=-3
kerning first=86 second=44 amount=-7
kerning first=86 second=46 amount=-7
kerning first=86 second=45 amount=-2
kerning first=55 second=47 amount=-8
kerning first=55 second=48 amount=-1
kerning first=55 second=54 amount=-1
kerning first=55 second=56 amount=-1
kerning first=55 second=57 amount=-1
kerning first=55 second=49 amount=1
kerning first=55 second=50 amount=-1
kerning first=55 second=51 amount=-1
kerning first=55 second=52 amount=-5
kerning first=55 second=53 amount=-1
kerning first=55 second=44 amount=-6
kerning first=55 second=46 amount=-6
kerning first=55 second=45 amount=-2
kerning first=66 second=87 amount=-1
kerning first=66 second=86 amount=-1
kerning first=66 second=84 amount=-1
kerning first=66 second=88 amount=-1
kerning first=66 second=89 amount=-2
kerning first=66 second=121 amount=-1
kerning first=66 second=118 amount=-1
kerning first=66 second=119 amount=-1
kerning first=68 second=47 amount=-2
kerning first=68 second=41 amount=-2
kerning first=68 second=125 amount=-1
kerning first=68 second=93 amount=-1
kerning first=68 second=83 amount=-1
kerning first=68 second=87 amount=-2
kerning first=68 second=63 amount=-1
kerning first=68 second=65 amount=-3
kerning first=68 second=74 amount=-2
kerning first=68 second=86 amount=-3
kerning first=68 second=84 amount=-3
kerning first=68 second=88 amount=-3
kerning first=68 second=89 amount=-4
kerning first=68 second=90 amount=-3
kerning first=68 second=120 amount=-1
kerning first=68 second=44 amount=-2
kerning first=68 second=46 amount=-2
kerning first=69 second=100 amount=-1
kerning first=69 second=121 amount=-1
kerning first=69 second=99 amount=-1
kerning first=69 second=101 amount=-1
kerning first=69 second=111 amount=-1
kerning first=69 second=118 amount=-1
kerning first=69 second=119 amount=-1
kerning first=70 second=47 amount=-4
kerning first=70 second=81 amount=-1
kerning first=70 second=100 amount=-1
kerning first=70 second=38 amount=-2
kerning first=70 second=67 amount=-1
kerning first=70 second=71 amount=-1
kerning first=70 second=79 amount=-1
kerning first=70 second=63 amount=1
kerning first=70 second=65 amount=-5
kerning first=70 second=74 amount=-7
kerning first=70 second=90 amount=-1
kerning first=70 second=103 amount=-1
kerning first=70 second=113 amount=-1
kerning first=70 second=121 amount=-1
kerning first=70 second=97 amount=-1
kerning first=70 second=99 amount=-1
kerning first=70 second=101 amount=-1
kerning first=70 second=111 amount=-1
kerning first=70 second=115 amount=-1
kerning first=70 second=118 amount=-1
kerning first=70 second=119 amount=-1
kerning first=70 second=122 amount=-1
kerning first=70 second=44 amount=-6
kerning first=70 second=46 amount=-6
kerning first=75 second=81 amount=-3
kerning first=75 second=100 amount=-1
kerning first=75 second=38 amount=-1
kerning first=75 second=67 amount=-3
kerning first=75 second=71 amount=-3
kerning first=75 second=79 amount=-3
kerning first=75 second=83 amount=-1
kerning first=75 second=87 amount=-2
kerning first=75 second=102 amount=-1
kerning first=75 second=85 amount=-1
kerning first=75 second=86 amount=-2
kerning first=75 second=84 amount=-1
kerning first=75 second=89 amount=-2
kerning first=75 second=103 amount=-1
kerning first=75 second=113 amount=-1
kerning first=75 second=116 amount=-1
kerning first=75 second=121 amount=-3
kerning first=75 second=97 amount=-1
kerning first=75 second=99 amount=-2
kerning first=75 second=101 amount=-2
kerning first=75 second=111 amount=-2
kerning first=75 second=117 amount=-1
kerning first=75 second=118 amount=-4
kerning first=75 second=119 amount=-3
kerning first=75 second=45 amount=-3
kerning first=76 second=81 amount=-2
kerning first=76 second=38 amount=-1
kerning first=76 second=67 amount=-2
kerning first=76 second=71 amount=-2
kerning first=76 second=79 amount=-2
kerning first=76 second=87 amount=-6
kerning first=76 second=102 amount=-1
kerning first=76 second=63 amount=-4
kerning first=76 second=85 amount=-1
kerning first=76 second=86 amount=-7
kerning first=76 second=84 amount=-6
kerning first=76 second=89 amount=-8
kerning first=76 second=116 amount=-1
kerning first=76 second=121 amount=-4
kerning first=76 second=99 amount=-1
kerning first=76 second=101 amount=-1
kerning first=76 second=111 amount=-1
kerning first=76 second=118 amount=-4
kerning first=76 second=119 amount=-3
kerning first=76 second=42 amount=-5
kerning first=76 second=45 amount=-2
kerning first=80 second=47 amount=-4
kerning first=80 second=38 amount=-1
kerning first=80 second=102 amount=1
kerning first=80 second=65 amount=-4
kerning first=80 second=74 amount=-6
kerning first=80 second=86 amount=-1
kerning first=80 second=88 amount=-2
kerning first=80 second=89 amount=-1
kerning first=80 second=90 amount=-1
kerning first=80 second=116 amount=1
kerning first=80 second=121 amount=1
kerning first=80 second=97 amount=-1
kerning first=80 second=118 amount=1
kerning first=80 second=119 amount=1
kerning first=80 second=44 amount=-6
kerning first=80 second=46 amount=-6
kerning first=82 second=87 amount=-1
kerning first=82 second=102 amount=1
kerning first=82 second=86 amount=-1
kerning first=82 second=84 amount=-1
kerning first=82 second=89 amount=-1
kerning first=82 second=116 amount=1
kerning first=82 second=99 amount=-1
kerning first=82 second=101 amount=-1
kerning first=82 second=111 amount=-1
kerning first=84 second=47 amount=-5
kerning first=84 second=106 amount=-2
kerning first=84 second=81 amount=-3
kerning first=84 second=100 amount=-7
kerning first=84 second=38 amount=-4
kerning first=84 second=67 amount=-3
kerning first=84 second=71 amount=-3
kerning first=84 second=79 amount=-3
kerning first=84 second=83 amount=-1
kerning first=84 second=102 amount=-3
kerning first=84 second=104 amount=-1
kerning first=84 second=108 amount=-1
kerning first=84 second=65 amount=-5
kerning first=84 second=74 amount=-7
kerning first=84 second=105 amount=-2
kerning first=84 second=90 amount=-1
kerning first=84 second=103 amount=-7
kerning first=84 second=112 amount=-6
kerning first=84 second=113 amount=-7
kerning first=84 second=116 amount=-3
kerning first=84 second=121 amount=-6
kerning first=84 second=59 amount=-3
kerning first=84 second=97 amount=-8
kerning first=84 second=99 amount=-8
kerning first=84 second=101 amount=-8
kerning first=84 second=111 amount=-8
kerning first=84 second=115 amount=-7
kerning first=84 second=109 amount=-6
kerning first=84 second=110 amount=-6
kerning first=84 second=114 amount=-6
kerning first=84 second=117 amount=-6
kerning first=84 second=118 amount=-6
kerning first=84 second=119 amount=-6
kerning first=84 second=58 amount=-3
kerning first=84 second=120 amount=-6
kerning first=84 second=122 amount=-7
kerning first=84 second=44 amount=-6
kerning first=84 second=46 amount=-6
kerning first=84 second=45 amount=-5
kerning first=88 second=106 amount=-1
kerning first=88 second=81 amount=-3
kerning first=88 second=100 amount=-2
kerning first=88 second=38 amount=-1
kerning first=88 second=67 amount=-3
kerning first=88 second=71 amount=-3
kerning first=88 second=79 amount=-3
kerning first=88 second=83 amount=-2
kerning first=88 second=87 amount=-1
kerning first=88 second=102 amount=-1
kerning first=88 second=108 amount=-1
kerning first=88 second=63 amount=-1
kerning first=88 second=74 amount=-1
kerning first=88 second=85 amount=-1
kerning first=88 second=86 amount=-1
kerning first=88 second=105 amount=-1
kerning first=88 second=89 amount=-1
kerning first=88 second=103 amount=-2
kerning first=88 second=113 amount=-2
kerning first=88 second=116 amount=-1
kerning first=88 second=121 amount=-2
kerning first=88 second=97 amount=-1
kerning first=88 second=99 amount=-3
kerning first=88 second=101 amount=-3
kerning first=88 second=111 amount=-3
kerning first=88 second=117 amount=-1
kerning first=88 second=118 amount=-3
kerning first=88 second=119 amount=-2
kerning first=88 second=45 amount=-3
kerning first=89 second=47 amount=-7
kerning first=89 second=106 amount=-1
kerning first=89 second=81 amount=-4
kerning first=89 second=100 amount=-6
kerning first=89 second=38 amount=-4
kerning first=89 second=67 amount=-4
kerning first=89 second=71 amount=-4
kerning first=89 second=79 amount=-4
kerning first=89 second=83 amount=-2
kerning first=89 second=87 amount=-1
kerning first=89 second=102 amount=-2
kerning first=89 second=108 amount=-1
kerning first=89 second=65 amount=-7
kerning first=89 second=74 amount=-8
kerning first=89 second=86 amount=-1
kerning first=89 second=105 amount=-1
kerning first=89 second=88 amount=-1
kerning first=89 second=90 amount=-1
kerning first=89 second=103 amount=-6
kerning first=89 second=112 amount=-4
kerning first=89 second=113 amount=-6
kerning first=89 second=116 amount=-2
kerning first=89 second=121 amount=-4
kerning first=89 second=59 amount=-2
kerning first=89 second=97 amount=-6
kerning first=89 second=99 amount=-7
kerning first=89 second=101 amount=-7
kerning first=89 second=111 amount=-7
kerning first=89 second=115 amount=-6
kerning first=89 second=109 amount=-4
kerning first=89 second=110 amount=-4
kerning first=89 second=114 amount=-4
kerning first=89 second=117 amount=-4
kerning first=89 second=118 amount=-4
kerning first=89 second=119 amount=-3
kerning first=89 second=58 amount=-2
kerning first=89 second=120 amount=-4
kerning first=89 second=122 amount=-5
kerning first=89 second=44 amount=-8
kerning first=89 second=46 amount=-8
kerning first=89 second=45 amount=-5
kerning first=90 second=81 amount=-2
kerning first=90 second=100 amount=-1
kerning first=90 second=38 amount=-1
kerning first=90 second=67 amount=-2
kerning first=90 second=71 amount=-2
kerning first=90 second=79 amount=-2
kerning first=90 second=83 amount=-1
kerning first=90 second=102 amount=-1
kerning first=90 second=90 amount=-1
kerning first=90 second=103 amount=-1
kerning first=90 second=113 amount=-1
kerning first=90 second=121 amount=-1
kerning first=90 second=99 amount=-1
kerning first=90 second=101 amount=-1
kerning first=90 second=111 amount=-1
kerning first=90 second=118 amount=-1
kerning first=90 second=119 amount=-1
kerning first=90 second=45 amount=-2
kerning first=112 second=41 amount=-2
kerning first=112 second=125 amount=-1
kerning first=112 second=93 amount=-1
kerning first=112 second=63 amount=-2
kerning first=112 second=121 amount=-1
kerning first=112 second=118 amount=-1
kerning first=112 second=119 amount=-1
kerning first=112 second=120 amount=-2
kerning first=112 second=122 amount=-1
kerning first=112 second=42 amount=-1
kerning first=112 second=44 amount=-1
kerning first=112 second=46 amount=-1
kerning first=116 second=100 amount=-1
kerning first=116 second=103 amount=-1
kerning first=116 second=113 amount=-1
kerning first=116 second=99 amount=-1
kerning first=116 second=101 amount=-1
kerning first=116 second=111 amount=-1
kerning first=121 second=47 amount=-4
kerning first=121 second=125 amount=-1
kerning first=121 second=93 amount=-1
kerning first=121 second=100 amount=-1
kerning first=121 second=63 amount=-1
kerning first=121 second=103 amount=-1
kerning first=121 second=113 amount=-1
kerning first=121 second=121 amount=-1
kerning first=121 second=97 amount=-1
kerning first=121 second=99 amount=-2
kerning first=121 second=101 amount=-2
kerning first=121 second=111 amount=-2
kerning first=121 second=115 amount=-1
kerning first=121 second=118 amount=-1
kerning first=121 second=119 amount=-1
kerning first=121 second=120 amount=-1
kerning first=121 second=44 amount=-5
kerning first=121 second=46 amount=-5
kerning first=121 second=45 amount=-1
kerning first=59 second=87 amount=-1
kerning first=59 second=86 amount=-1
kerning first=59 second=84 amount=-3
kerning first=59 second=89 amount=-2
kerning first=97 second=63 amount=-2
kerning first=97 second=121 amount=-1
kerning first=97 second=118 amount=-1
kerning first=97 second=119 amount=-1
kerning first=97 second=42 amount=-1
kerning first=99 second=41 amount=-1
kerning first=99 second=100 amount=-1
kerning first=99 second=63 amount=-1
kerning first=99 second=103 amount=-1
kerning first=99 second=113 amount=-1
kerning first=99 second=99 amount=-1
kerning first=99 second=101 amount=-1
kerning first=99 second=111 amount=-1
kerning first=99 second=120 amount=-1
kerning first=101 second=41 amount=-2
kerning first=101 second=125 amount=-1
kerning first=101 second=93 amount=-1
kerning first=101 second=63 amount=-2
kerning first=101 second=121 amount=-1
kerning first=101 second=118 amount=-1
kerning first=101 second=119 amount=-1
kerning first=101 second=120 amount=-2
kerning first=101 second=122 amount=-1
kerning first=101 second=42 amount=-1
kerning first=101 second=44 amount=-1
kerning first=101 second=46 amount=-1
kerning first=111 second=41 amount=-2
kerning first=111 second=125 amount=-1
kerning first=111 second=93 amount=-1
kerning first=111 second=63 amount=-3
kerning first=111 second=121 amount=-2
kerning first=111 second=118 amount=-2
kerning first=111 second=119 amount=-1
kerning first=111 second=120 amount=-2
kerning first=111 second=122 amount=-1
kerning first=111 second=42 amount=-1
kerning first=111 second=44 amount=-1
kerning first=111 second=46 amount=-1
kerning first=115 second=41 amount=-1
kerning first=115 second=125 amount=-1
kerning first=115 second=93 amount=-1
kerning first=115 second=63 amount=-2
kerning first=115 second=116 amount=-1
kerning first=115 second=121 amount=-1
kerning first=115 second=115 amount=-1
kerning first=115 second=118 amount=-1
kerning first=115 second=119 amount=-1
kerning first=115 second=120 amount=-1
kerning first=115 second=122 amount=-1
kerning first=109 second=63 amount=-2
kerning first=109 second=121 amount=-1
kerning first=109 second=118 amount=-1
kerning first=109 second=119 amount=-1
kerning first=109 second=42 amount=-1
kerning first=110 second=63 amount=-2
kerning first=110 second=121 amount=-1
kerning first=110 second=118 amount=-1
kerning first=110 second=119 amount=-1
kerning first=110 second=42 amount=-1
kerning first=114 second=47 amount=-4
kerning first=114 second=100 amount=-1
kerning first=114 second=103 amount=-1
kerning first=114 second=113 amount=-1
kerning first=114 second=97 amount=-1
kerning first=114 second=99 amount=-1
kerning first=114 second=101 amount=-1
kerning first=114 second=111 amount=-1
kerning first=114 second=122 amount=-1
kerning first=114 second=42 amount=1
kerning first=114 second=44 amount=-5
kerning first=114 second=46 amount=-5
kerning first=118 second=47 amount=-4
kerning first=118 second=125 amount=-1
kerning first=118 second=93 amount=-1
kerning first=118 second=100 amount=-1
kerning first=118 second=63 amount=-1
kerning first=118 second=103 amount=-1
kerning first=118 second=113 amount=-1
kerning first=118 second=121 amount=-1
kerning first=118 second=97 amount=-1
kerning first=118 second=99 amount=-2
kerning first=118 second=101 amount=-2
kerning first=118 second=111 amount=-2
kerning first=118 second=115 amount=-1
kerning first=118 second=118 amount=-1
kerning first=118 second=119 amount=-1
kerning first=118 second=120 amount=-1
kerning first=118 second=44 amount=-5
kerning first=118 second=46 amount=-5
kerning first=118 second=45 amount=-1
kerning first=119 second=47 amount=-4
kerning first=119 second=125 amount=-1
kerning first=119 second=93 amount=-1
kerning first=119 second=100 amount=-1
kerning first=119 second=63 amount=-1
kerning first=119 second=103 amount=-1
kerning first=119 second=113 amount=-1
kerning first=119 second=121 amount=-1
kerning first=119 second=97 amount=-1
kerning first=119 second=99 amount=-1
kerning first=119 second=101 amount=-1
kerning first=119 second=111 amount=-1
kerning first=119 second=115 amount=-1
kerning first=119 second=118 amount=-1
kerning first=119 second=119 amount=-1
kerning first=119 second=120 amount=-1
kerning first=119 second=44 amount=-4
kerning first=119 second=46 amount=-4
kerning first=119 second=45 amount=-1
kerning first=58 second=87 amount=-1
kerning first=58 second=86 amount=-1
kerning first=58 second=84 amount=-3
kerning first=58 second=89 amount=-2
kerning first=120 second=125 amount=-1
kerning first=120 second=93 amount=-1
kerning first=120 second=100 amount=-2
kerning first=120 second=63 amount=-1
kerning first=120 second=103 amount=-2
kerning first=120 second=113 amount=-2
kerning first=120 second=121 amount=-1
kerning first=120 second=97 amount=-1
kerning first=120 second=99 amount=-2
kerning first=120 second=101 amount=-2
kerning first=120 second=111 amount=-2
kerning first=120 second=115 amount=-1
kerning first=120 second=118 amount=-1
kerning first=120 second=119 amount=-1
kerning first=120 second=45 amount=-2
kerning first=122 second=100 amount=-1
kerning first=122 second=103 amount=-1
kerning first=122 second=113 amount=-1
kerning first=122 second=99 amount=-1
kerning first=122 second=101 amount=-1
kerning first=122 second=111 amount=-1
kerning first=42 second=100 amount=-1
kerning first=42 second=65 amount=-6
kerning first=42 second=74 amount=-5
kerning first=42 second=103 amount=-1
kerning first=42 second=113 amount=-1
kerning first=42 second=116 amount=1
kerning first=42 second=97 amount=-1
kerning first=42 second=99 amount=-1
kerning first=42 second=101 amount=-1
kerning first=42 second=111 amount=-1
kerning first=42 second=115 amount=-1
kerning first=44 second=106 amount=1
kerning first=44 second=81 amount=-2
kerning first=44 second=100 amount=-1
kerning first=44 second=48 amount=-1
kerning first=44 second=67 amount=-2
kerning first=44 second=71 amount=-2
kerning first=44 second=79 amount=-2
kerning first=44 second=87 amount=-6
kerning first=44 second=102 amount=-1
kerning first=44 second=49 amount=-3
kerning first=44 second=85 amount=-1
kerning first=44 second=86 amount=-7
kerning first=44 second=55 amount=-1
kerning first=44 second=84 amount=-6
kerning first=44 second=89 amount=-8
kerning first=44 second=103 amount=-1
kerning first=44 second=113 amount=-1
kerning first=44 second=116 amount=-1
kerning first=44 second=121 amount=-3
kerning first=44 second=99 amount=-1
kerning first=44 second=101 amount=-1
kerning first=44 second=111 amount=-1
kerning first=44 second=118 amount=-5
kerning first=44 second=119 amount=-4
kerning first=46 second=81 amount=-2
kerning first=46 second=100 amount=-1
kerning first=46 second=48 amount=-1
kerning first=46 second=67 amount=-2
kerning first=46 second=71 amount=-2
kerning first=46 second=79 amount=-2
kerning first=46 second=87 amount=-6
kerning first=46 second=102 amount=-1
kerning first=46 second=49 amount=-3
kerning first=46 second=85 amount=-1
kerning first=46 second=86 amount=-7
kerning first=46 second=55 amount=-1
kerning first=46 second=84 amount=-6
kerning first=46 second=89 amount=-8
kerning first=46 second=103 amount=-1
kerning first=46 second=113 amount=-1
kerning first=46 second=116 amount=-1
kerning first=46 second=121 amount=-4
kerning first=46 second=99 amount=-1
kerning first=46 second=101 amount=-1
kerning first=46 second=111 amount=-1
kerning first=46 second=118 amount=-5
kerning first=46 second=119 amount=-4
kerning first=45 second=87 amount=-2
kerning first=45 second=49 amount=-2
kerning first=45 second=51 amount=-1
kerning first=45 second=65 amount=-2
kerning first=45 second=86 amount=-2
kerning first=45 second=55 amount=-2
kerning first=45 second=84 amount=-5
kerning first=45 second=88 amount=-3
kerning first=45 second=89 amount=-5
kerning first=45 second=90 amount=-2
kerning first=45 second=121 amount=-1
kerning first=45 second=118 amount=-1
kerning first=45 second=119 amount=-1
kerning first=45 second=120 amount=-2
kerning first=45 second=122 amount=-1
